Causal inference mosquito nets | Dev docs
…
Now that we know precisely how to calculate the estimate for each iteration let’s create the bootstrapped dataset with rsample’s bootstraps() function. The times argument determines how many bootstrapped datasets to create; we’ll do 1,000.

bootstrapped_net_data <- bootstraps(
  net_data,
  times = 1000,
  # required to calculate CIs later
  apparent = TRUE
)

bootstrapped_net_data

## # Bootstrap sampling with apparent sample 
## # A tibble: 1,001 × 2
##    splits             id           
##    <list>             <chr>        
##  1 <split [1752/646]> Bootstrap0001
##  2 <split [1752/637]> Bootstrap0002
##  3 <split [1752/621]> Bootstrap0003
##  4 <split [1752/630]> Bootstrap0004
##  5 <split [1752/644]> Bootstrap0005
##  6 <split [1752/650]> Bootstrap0006
##  7 <split [1752/631]> Bootstrap0007
##  8 <split [1752/627]> Bootstrap0008
##  9 <split [1752/637]> Bootstrap0009
## 10 <split [1752/631]> Bootstrap0010
## # ℹ 991 more rows

The result is a nested data frame: each splits object contains metadata that rsample uses to subset the bootstrap samples for each of the 1,000 samples. We actually have 1,001 rows because apparent = TRUE keeps a copy of the original data frame, as well, which is needed for some times of confidence interval calculations. Next, we’ll run fit_ipw() 1,001 times to create a distribution for estimate. At its heart, the calculation we’re doing is

fit_ipw(bootstrapped_net_data$splits[[n]])

Where n is one of 1,001 indices. We’ll use purrr’s map() function to iterate across each split object.

ipw_results <- bootstrapped_net_data |>
  mutate(boot_fits = map(splits, fit_ipw))

ipw_results

## # Bootstrap sampling with apparent sample 
## # A tibble: 1,001 × 3
##    splits             id            boot_fits       
##    <list>             <chr>         <list>          
##  1 <split [1752/646]> Bootstrap0001 <tibble [2 × 5]>
##  2 <split [1752/637]> Bootstrap0002 <tibble [2 × 5]>
##  3 <split [1752/621]> Bootstrap0003 <tibble [2 × 5]>
##  4 <split [1752/630]> Bootstrap0004 <tibble [2 × 5]>
##  5 <split [1752/644]> Bootstrap0005 <tibble [2 × 5]>
##  6 <split [1752/650]> Bootstrap0006 <tibble [2 × 5]>
##  7 <split [1752/631]> Bootstrap0007 <tibble [2 × 5]>
##  8 <split [1752/627]> Bootstrap0008 <tibble [2 × 5]>
##  9 <split [1752/637]> Bootstrap0009 <tibble [2 × 5]>
## 10 <split [1752/631]> Bootstrap0010 <tibble [2 × 5]>
## # ℹ 991 more rows
…
